module todo-app-server

go 1.16

require (
	github.com/go-sql-driver/mysql v1.6.0 // indirect
	github.com/golang/mock v1.5.0 // indirect
	github.com/joho/godotenv v1.3.0 // indirect
	github.com/labstack/echo/v4 v4.2.2 // indirect
	github.com/stretchr/testify v1.7.0
)
